{
    "results": [
        {
            "vote_count": 1721,
            "id": 335983,
            "video": false,
            "vote_average": 6.6,
            "title": "Venom",
            "popularity": 376.076,
            "poster_path": "/2uNW4WbgBXL25BAbXGLnLqX71Sw.jpg",
            "original_language": "en",
            "original_title": "Venom",
            "genre_ids": [
                878
            ],
            "backdrop_path": "/VuukZLgaCrho2Ar8Scl9HtV3yD.jpg",
            "adult": false,
            "overview": "When Eddie Brock acquires the powers of a symbiote, he will have to release his alter-ego \"Venom\" to save his life.",
            "release_date": "2018-10-03"
        },
        {
            "vote_count": 393,
            "id": 424139,
            "video": false,
            "vote_average": 6.7,
            "title": "Halloween",
            "popularity": 297.488,
            "poster_path": "/bXs0zkv2iGVViZEy78teg2ycDBm.jpg",
            "original_language": "en",
            "original_title": "Halloween",
            "genre_ids": [
                27,
                53
            ],
            "backdrop_path": "/tZ358Wk4BnOc4FjdGsiexAUvCMH.jpg",
            "adult": false,
            "overview": "Laurie Strode comes to her final confrontation with Michael Myers, the masked figure who has haunted her since she narrowly escaped his killing spree on Halloween night four decades ago.",
            "release_date": "2018-10-18"
        },
        {
            "vote_count": 1159,
            "id": 332562,
            "video": false,
            "vote_average": 7.6,
            "title": "A Star Is Born",
            "popularity": 176.166,
            "poster_path": "/wrFpXMNBRj2PBiN4Z5kix51XaIZ.jpg",
            "original_language": "en",
            "original_title": "A Star Is Born",
            "genre_ids": [
                18,
                10402,
                10749
            ],
            "backdrop_path": "/840rbblaLc4SVxm8gF3DNdJ0YAE.jpg",
            "adult": false,
            "overview": "Seasoned musician Jackson Maine discovers—and falls in love with—struggling artist Ally. She has just about given up on her dream to make it big as a singer—until Jack coaxes her into the spotlight. But even as Ally's career takes off, the personal side of their relationship is breaking down, as Jack fights an ongoing battle with his own internal demons.",
            "release_date": "2018-10-03"
        },
        {
            "vote_count": 3146,
            "id": 260513,
            "video": false,
            "vote_average": 7.6,
            "title": "Incredibles 2",
            "popularity": 148.744,
            "poster_path": "/x1txcDXkcM65gl7w20PwYSxAYah.jpg",
            "original_language": "en",
            "original_title": "Incredibles 2",
            "genre_ids": [
                28,
                12,
                16,
                10751
            ],
            "backdrop_path": "/mabuNsGJgRuCTuGqjFkWe1xdu19.jpg",
            "adult": false,
            "overview": "Elastigirl springs into action to save the day, while Mr. Incredible faces his greatest challenge yet – taking care of the problems of his three children.",
            "release_date": "2018-06-14"
        },
        {
            "vote_count": 111,
            "id": 454293,
            "video": false,
            "vote_average": 6.4,
            "title": "Night School",
            "popularity": 142.64,
            "poster_path": "/1NSMAaBPSbWv7sGmF8oLGMNb8Qm.jpg",
            "original_language": "en",
            "original_title": "Night School",
            "genre_ids": [
                35
            ],
            "backdrop_path": "/7CWpvqVY5JWbEtkaenzqfJjVSal.jpg",
            "adult": false,
            "overview": "Teddy Walker is a successful salesman whose life takes an unexpected turn when he accidentally blows up his place of employment. Forced to attend night school to get his GED, Teddy soon finds himself dealing with a group of misfit students, his former high school nemesis and a feisty teacher who doesn't think he's too bright.",
            "release_date": "2018-09-27"
        },
        {
            "vote_count": 354,
            "id": 399360,
            "video": false,
            "vote_average": 5.4,
            "title": "Alpha",
            "popularity": 121.945,
            "poster_path": "/afdZAIcAQscziqVtsEoh2PwsYTW.jpg",
            "original_language": "en",
            "original_title": "Alpha",
            "genre_ids": [
                12,
                18
            ],
            "backdrop_path": "/nKMeTdm72LQ756Eq20uTjF1zDXu.jpg",
            "adult": false,
            "overview": "After a hunting expedition goes awry, a young caveman struggles against the elements to find his way home.",
            "release_date": "2018-08-17"
        },
        {
            "vote_count": 188,
            "id": 347375,
            "video": false,
            "vote_average": 5.8,
            "title": "Mile 22",
            "popularity": 99.661,
            "poster_path": "/ptSrT1JwZFWGhjSpYUtJaasQrh.jpg",
            "original_language": "en",
            "original_title": "Mile 22",
            "genre_ids": [
                28,
                12,
                80,
                53
            ],
            "backdrop_path": "/2nOMUnQ4OtsKVTmpp3og7MYt4oG.jpg",
            "adult": false,
            "overview": "A CIA field officer and an Indonesian police officer are forced to work together in confronting political corruption. An informant must be moved twenty-two miles to safety.",
            "release_date": "2018-08-16"
        },
        {
            "vote_count": 690,
            "id": 346910,
            "video": false,
            "vote_average": 5.3,
            "title": "The Predator",
            "popularity": 97.846,
            "poster_path": "/wMq9kQXTeQCHUZOG4fAe5cAxyUA.jpg",
            "original_language": "en",
            "original_title": "The Predator",
            "genre_ids": [
                27,
                878,
                28,
                53
            ],
            "backdrop_path": "/f4E0ocYeToEuXvczZv6QArrMDJ.jpg",
            "adult": false,
            "overview": "From the outer reaches of space to the small-town streets of suburbia, the hunt comes home. Now, the universe’s most lethal hunters are stronger, smarter and deadlier than ever before, having genetically upgraded themselves with DNA from other species. When a young boy accidentally triggers their return to Earth, only a ragtag crew of ex-soldiers and a disgruntled science teacher can prevent the end of the human race.",
            "release_date": "2018-09-13"
        },
        {
            "vote_count": 71,
            "id": 438590,
            "video": false,
            "vote_average": 5.3,
            "title": "A-X-L",
            "popularity": 93.391,
            "poster_path": "/9kB56ZdMB6RgY5QtX9Bar45jCeI.jpg",
            "original_language": "en",
            "original_title": "A-X-L",
            "genre_ids": [
                878,
                28,
                12,
                10751
            ],
            "backdrop_path": "/l1nYo0yzKjf84atnBDbx0do16vQ.jpg",
            "adult": false,
            "overview": "The life of a teenage boy is forever altered by a chance encounter with cutting edge military technology.",
            "release_date": "2018-08-16"
        },
        {
            "vote_count": 1223,
            "id": 439079,
            "video": false,
            "vote_average": 5.8,
            "title": "The Nun",
            "popularity": 90.215,
            "poster_path": "/sFC1ElvoKGdHJIWRpNB3xWJ9lJA.jpg",
            "original_language": "en",
            "original_title": "The Nun",
            "genre_ids": [
                27,
                9648,
                53
            ],
            "backdrop_path": "/fgsHxz21B27hOOqQBiw9L6yWcM7.jpg",
            "adult": false,
            "overview": "When a young nun at a cloistered abbey in Romania takes her own life, a priest with a haunted past and a novitiate on the threshold of her final vows are sent by the Vatican to investigate. Together they uncover the order’s unholy secret. Risking not only their lives but their faith and their very souls, they confront a malevolent force in the form of the same demonic nun that first terrorized audiences in “The Conjuring 2,” as the abbey becomes a horrific battleground between the living and the damned.",
            "release_date": "2018-09-05"
        },
        {
            "vote_count": 253,
            "id": 463272,
            "video": false,
            "vote_average": 6.2,
            "title": "Johnny English Strikes Again",
            "popularity": 83.472,
            "poster_path": "/tCBxnZwLiY1BOKw3tH6AxHZdqPh.jpg",
            "original_language": "en",
            "original_title": "Johnny English Strikes Again",
            "genre_ids": [
                12,
                10751,
                28,
                35
            ],
            "backdrop_path": "/yCOLqh5MOGyYdo58Ap0aWvKop9h.jpg",
            "adult": false,
            "overview": "Disaster strikes when a criminal mastermind reveals the identities of all active undercover agents in Britain. The secret service can now rely on only one man—Johnny English. Currently teaching at a minor prep school, Johnny springs back into action to find the mysterious hacker. For this mission to succeed, he’ll need all of his skills—what few he has—as the man with yesterday’s analogue methods faces off against tomorrow’s digital technology.",
            "release_date": "2018-09-13"
        },
        {
            "vote_count": 363,
            "id": 369972,
            "video": false,
            "vote_average": 7.2,
            "title": "First Man",
            "popularity": 83.035,
            "poster_path": "/i91mfvFcPPlaegcbOyjGgiWfZzh.jpg",
            "original_language": "en",
            "original_title": "First Man",
            "genre_ids": [
                36,
                18
            ],
            "backdrop_path": "/z6ZANhPCcPl1HsKGjY5iZALf65V.jpg",
            "adult": false,
            "overview": "A look at the life of the astronaut, Neil Armstrong, and the legendary space mission that led him to become the first man to walk on the Moon on July 20, 1969.",
            "release_date": "2018-10-11"
        },
        {
            "vote_count": 361,
            "id": 420814,
            "video": false,
            "vote_average": 7.6,
            "title": "Christopher Robin",
            "popularity": 74.689,
            "poster_path": "/xR5w0he6czZkcAz459a4iPBqXGe.jpg",
            "original_language": "en",
            "original_title": "Christopher Robin",
            "genre_ids": [
                16,
                12,
                35,
                10751
            ],
            "backdrop_path": "/uDt8bQ4lGVlabEx5Gl2cPzvy6qz.jpg",
            "adult": false,
            "overview": "Working-class family man Christopher Robin encounters his childhood friend Winnie-the-Pooh, who helps him to rediscover the joys of life.",
            "release_date": "2018-08-02"
        },
        {
            "vote_count": 12,
            "id": 523873,
            "video": false,
            "vote_average": 4.2,
            "title": "Kung Fu League",
            "popularity": 69.93,
            "poster_path": "/rW0A73hjzPWVwADlCTLnjLhAFLX.jpg",
            "original_language": "zh",
            "original_title": "功夫联盟",
            "genre_ids": [
                28,
                35
            ],
            "backdrop_path": null,
            "adult": false,
            "overview": "Martial arts comedy following a group of kung fu legends banding together to take on the bad guys. The legends includes VINCENT ZHAO reprising his role as ‘Wong Fei Hung’ with DENNIS TO once again portraying ‘Wing Chun’ master ‘Ip Man’, DANNY CHAN KWOK KWAN as ‘Chen Zhen’ and ANDY ON as master ‘Huo Yuan Jia’.",
            "release_date": "2018-10-19"
        },
        {
            "vote_count": 766,
            "id": 487558,
            "video": false,
            "vote_average": 7.4,
            "title": "BlacKkKlansman",
            "popularity": 65.342,
            "poster_path": "/bT5WuAsjDJYQv2vXbWGDQTmjKav.jpg",
            "original_language": "en",
            "original_title": "BlacKkKlansman",
            "genre_ids": [
                80,
                18,
                35
            ],
            "backdrop_path": "/gMVdhfQ7q9DFHhDkehrququjGPd.jpg",
            "adult": false,
            "overview": "Ron Stallworth, an African-American police officer from Colorado, successfully manages to infiltrate the local Ku Klux Klan and become the head of the local chapter.",
            "release_date": "2018-07-30"
        },
        {
            "vote_count": 150,
            "id": 446021,
            "video": false,
            "vote_average": 6.5,
            "title": "Bad Times at the El Royale",
            "popularity": 56.527,
            "poster_path": "/iNtFgXqXPRMkm1QO8CHn5sHfUgE.jpg",
            "original_language": "en",
            "original_title": "Bad Times at the El Royale",
            "genre_ids": [
                53,
                80,
                9648
            ],
            "backdrop_path": "/gb3TVVZNNxVGNfS1NxGaiWZfwnW.jpg",
            "adult": false,
            "overview": "Seven strangers, each with a secret to bury, meet at Lake Tahoe's El Royale, a rundown hotel with a dark past in 1969. Over the course of one fateful night, everyone will have a last shot at redemption.",
            "release_date": "2018-10-04"
        },
        {
            "vote_count": 138,
            "id": 446894,
            "video": false,
            "vote_average": 6.6,
            "title": "Smallfoot",
            "popularity": 55.093,
            "poster_path": "/4nKoB6wMVXfsYgRZK5lHZ5VMQ6J.jpg",
            "original_language": "en",
            "original_title": "Smallfoot",
            "genre_ids": [
                35,
                16,
                10751,
                12,
                14
            ],
            "backdrop_path": "/7t88SoT3Dd8DhGnQuVoSbMNUl3W.jpg",
            "adult": false,
            "overview": "A bright young yeti finds something he thought didn't exist—a human. News of this “smallfoot” throws the simple yeti community into an uproar over what else might be out there in the big world beyond their snowy village.",
            "release_date": "2018-09-20"
        },
        {
            "vote_count": 1122,
            "id": 447200,
            "video": false,
            "vote_average": 6.1,
            "title": "Skyscraper",
            "popularity": 51.036,
            "poster_path": "/5LYSsOPzuP13201qSzMjNxi8FxN.jpg",
            "original_language": "en",
            "original_title": "Skyscraper",
            "genre_ids": [
                28,
                53,
                18
            ],
            "backdrop_path": "/oMKFQmoVgB69fyXfSMu0lGlHJP2.jpg",
            "adult": false,
            "overview": "Framed and on the run, a former FBI agent must save his family from a blazing fire in the world's tallest building.",
            "release_date": "2018-07-11"
        },
        {
            "vote_count": 65,
            "id": 442062,
            "video": false,
            "vote_average": 5.8,
            "title": "Goosebumps 2: Haunted Halloween",
            "popularity": 50.644,
            "poster_path": "/8bcpki9GfXdXj9esFpPtlate8v0.jpg",
            "original_language": "en",
            "original_title": "Goosebumps 2: Haunted Halloween",
            "genre_ids": [
                12,
                35,
                14,
                27,
                10751
            ],
            "backdrop_path": "/9xYg9ScjGaO2HrLfOfYZirTrB3o.jpg",
            "adult": false,
            "overview": "Two boys face an onslaught from witches, monsters, ghouls and a talking dummy after they discover a mysterious book by author R.\u202fL. Stine.",
            "release_date": "2018-10-11"
        },
        {
            "vote_count": 23,
            "id": 458344,
            "video": false,
            "vote_average": 6.9,
            "title": "Juliet, Naked",
            "popularity": 50.341,
            "poster_path": "/tj4lbeWQBvPwGjadEAAjJdQolko.jpg",
            "original_language": "en",
            "original_title": "Juliet, Naked",
            "genre_ids": [
                35,
                18,
                10749
            ],
            "backdrop_path": "/wD2II1FVLljpLMjATUS2SdUruDP.jpg",
            "adult": false,
            "overview": "Annie is stuck in a long-term relationship with Duncan – an obsessive fan of obscure rocker Tucker Crowe. When the acoustic demo of Tucker's hit record from 25 years ago surfaces, its discovery leads to a life-changing encounter with the elusive rocker himself.",
            "release_date": "2018-08-16"
        }
    ],
    "page": 1,
    "total_results": 1191,
    "dates": {
        "maximum": "2018-10-28",
        "minimum": "2018-09-10"
    },
    "total_pages": 60
}
